P4/P4Judger/src/dump.vcd
$date
	Fri Nov 12 20:56:11 2021
$end
$version
	Icarus Verilog
$end
$timescale
	1ps
$end
$scope module mips_tb $end
$var reg 1 ! clk $end
$var reg 1 " reset $end
$scope module uut $end
$var wire 1 ! clk $end
$var wire 1 " reset $end
$var wire 5 # shamt [4:0] $end
$var wire 32 $ pc4 [31:0] $end
$var wire 32 % pc [31:0] $end
$var wire 32 & npc [31:0] $end
$var wire 1 ' jump $end
$var wire 32 ( instr [31:0] $end
$var wire 32 ) imm32 [31:0] $end
$var wire 26 * imm26 [25:0] $end
$var wire 16 + imm16 [15:0] $end
$var wire 32 , grf_rd2 [31:0] $end
$var wire 32 - grf_rd1 [31:0] $end
$var wire 32 . dm_rd [31:0] $end
$var wire 32 / alu_ans [31:0] $end
$var wire 5 0 addr_rt [4:0] $end
$var wire 5 1 addr_rs [4:0] $end
$var wire 5 2 addr_rd [4:0] $end
$var wire 3 3 NPCOp [2:0] $end
$var wire 1 4 GRFWrEn $end
$var wire 2 5 GRFWDSel [1:0] $end
$var wire 2 6 GRFA3Sel [1:0] $end
$var wire 1 7 EXTOp $end
$var wire 1 8 DMWrEn $end
$var wire 3 9 DMOp [2:0] $end
$var wire 3 : CMPOp [2:0] $end
$var wire 4 ; ALUOp [3:0] $end
$var wire 1 < ALUBSel $end
$scope module _alu $end
$var wire 32 = B [31:0] $end
$var wire 5 > shamt [4:0] $end
$var wire 4 ? ALUOp [3:0] $end
$var wire 32 @ A [31:0] $end
$var reg 32 A C [31:0] $end
$upscope $end
$scope module _cmp $end
$var wire 32 B rt [31:0] $end
$var wire 32 C rs [31:0] $end
$var wire 1 D ne $end
$var wire 1 E le0 $end
$var wire 1 ' jump $end
$var wire 1 F ge0 $end
$var wire 1 G eq0 $end
$var wire 1 H eq $end
$var wire 3 I CMPOp [2:0] $end
$upscope $end
$scope module _ctrl $end
$var wire 1 8 DMWrEn $end
$var wire 1 J addu $end
$var wire 1 K jr $end
$var wire 1 ' jump $end
$var wire 1 L subu $end
$var wire 1 M sw $end
$var wire 5 N shamt [4:0] $end
$var wire 5 O rt [4:0] $end
$var wire 5 P rs [4:0] $end
$var wire 5 Q rd [4:0] $end
$var wire 1 R ori $end
$var wire 6 S opcode [5:0] $end
$var wire 1 T lw $end
$var wire 1 U lui $end
$var wire 1 V jal $end
$var wire 1 W j $end
$var wire 26 X imm26 [25:0] $end
$var wire 16 Y imm16 [15:0] $end
$var wire 6 Z funct [5:0] $end
$var wire 1 [ beq $end
$var wire 3 \ NPCOp [2:0] $end
$var wire 32 ] Instr [31:0] $end
$var wire 1 4 GRFWrEn $end
$var wire 2 ^ GRFWDSel [1:0] $end
$var wire 2 _ GRFA3Sel [1:0] $end
$var wire 1 7 EXTOp $end
$var wire 3 ` DMOp [2:0] $end
$var wire 3 a CMPOp [2:0] $end
$var wire 4 b ALUOp [3:0] $end
$var wire 1 < ALUBSel $end
$upscope $end
$scope module _dm $end
$var wire 32 c Addr [31:0] $end
$var wire 3 d DMOp [2:0] $end
$var wire 1 8 DMWrEn $end
$var wire 1 ! clk $end
$var wire 1 " reset $end
$var wire 32 e WD [31:0] $end
$var wire 32 f RD [31:0] $end
$var wire 32 g PC [31:0] $end
$var integer 32 h i [31:0] $end
$upscope $end
$scope module _ext $end
$var wire 1 7 EXTOp $end
$var wire 16 i imm16 [15:0] $end
$var wire 32 j out32 [31:0] $end
$upscope $end
$scope module _grf $end
$var wire 5 k A1 [4:0] $end
$var wire 5 l A2 [4:0] $end
$var wire 5 m A3 [4:0] $end
$var wire 1 4 GRFWrEn $end
$var wire 32 n RD1 [31:0] $end
$var wire 32 o RD2 [31:0] $end
$var wire 32 p WD [31:0] $end
$var wire 1 ! clk $end
$var wire 1 " reset $end
$var wire 32 q PC [31:0] $end
$var reg 32 r WrData [31:0] $end
$var integer 32 s i [31:0] $end
$upscope $end
$scope module _ifu $end
$var wire 32 t Instr [31:0] $end
$var wire 1 ! clk $end
$var wire 1 " reset $end
$var wire 32 u NPC [31:0] $end
$var reg 32 v PC [31:0] $end
$upscope $end
$scope module _npc $end
$var wire 3 w NPCOp [2:0] $end
$var wire 32 x PC [31:0] $end
$var wire 16 y imm16 [15:0] $end
$var wire 26 z imm26 [25:0] $end
$var wire 1 ' jump $end
$var wire 32 { rs [31:0] $end
$var wire 32 | PC4 [31:0] $end
$var wire 32 } NPC [31:0] $end
$upscope $end
$upscope $end
$upscope $end
$enddefinitions $end
#0
$dumpvars
b11000000000100 }
b11000000000100 |
b0 {
b111000000000000000000 z
b0 y
b11000000000000 x
b0 w
b11000000000000 v
b11000000000100 u
b110100000111000000000000000000 t
b100000 s
bx r
b11000000000000 q
b0 p
b0 o
b0 n
b11100 m
b11100 l
b0 k
b0 j
b0 i
b10000000000 h
b11000000000000 g
b0 f
b0 e
b0 d
b0 c
b10 b
b0 a
b0 `
b1 _
b0 ^
b110100000111000000000000000000 ]
b0 \
0[
b0 Z
b0 Y
b111000000000000000000 X
0W
0V
0U
0T
b1101 S
1R
b0 Q
b0 P
b11100 O
b0 N
0M
0L
0K
0J
b0 I
1H
1G
0F
0E
0D
b0 C
b0 B
b0 A
b0 @
b10 ?
b0 >
b0 =
1<
b10 ;
b0 :
b0 9
08
07
b1 6
b0 5
14
b0 3
b0 2
b0 1
b11100 0
b0 /
b0 .
b0 -
b0 ,
b0 +
b111000000000000000000 *
b0 )
b110100000111000000000000000000 (
1'
b11000000000100 &
b11000000000000 %
b11000000000100 $
b0 #
1"
0!
$end
#1000
b100000 s
b10000000000 h
1!
#2000
0!
#3000
b10000000000 h
b100000 s
1!
#4000
0!
#5000
b100000 s
b10000000000 h
1!
#6000
0!
#7000
b10000000000 h
b100000 s
1!
#8000
0!
#9000
b100000 s
b10000000000 h
1!
#10000
0!
0"
#11000
b11101 m
b111010000000000000000 *
b111010000000000000000 X
b111010000000000000000 z
b11101 0
b11101 O
b11101 l
b110100000111010000000000000000 (
b110100000111010000000000000000 ]
b110100000111010000000000000000 t
b11000000001000 &
b11000000001000 u
b11000000001000 }
b11000000001000 $
b11000000001000 |
b11000000000100 %
b11000000000100 g
b11000000000100 q
b11000000000100 v
b11000000000100 x
b0 r
1!
#12000
0!
#13000
b11010001010110 p
b11010001010110 /
b11010001010110 A
b11010001010110 c
b11010001010110 =
b11010001010110 )
b11010001010110 j
b1 m
b10001 #
b10001 >
b10001 N
b10011010001010110 *
b10011010001010110 X
b10011010001010110 z
b11010001010110 +
b11010001010110 Y
b11010001010110 i
b11010001010110 y
b110 2
b110 Q
b1 0
b1 O
b1 l
b10110 Z
b110100000000010011010001010110 (
b110100000000010011010001010110 ]
b110100000000010011010001010110 t
b11000000001100 &
b11000000001100 u
b11000000001100 }
b11000000001100 $
b11000000001100 |
b11000000001000 %
b11000000001000 g
b11000000001000 q
b11000000001000 v
b11000000001000 x
1!
#14000
0!
#15000
b110100010101100 p
b11010001010110 =
b0 6
b0 _
0<
b110100010101100 /
b110100010101100 A
b110100010101100 c
b100000100001 )
b100000100001 j
b0 ;
b0 ?
b0 b
1'
1J
b0 #
b0 >
b0 N
b1000010000100000100001 *
b1000010000100000100001 X
b1000010000100000100001 z
b100000100001 +
b100000100001 Y
b100000100001 i
b100000100001 y
b1 2
b1 Q
0G
1F
b11010001010110 -
b11010001010110 @
b11010001010110 C
b11010001010110 n
b11010001010110 {
b1 1
b1 P
b1 k
b100001 Z
0R
b0 S
b1000010000100000100001 (
b1000010000100000100001 ]
b1000010000100000100001 t
b11000000010000 &
b11000000010000 u
b11000000010000 }
0D
1H
b11010001010110 ,
b11010001010110 B
b11010001010110 e
b11010001010110 o
b11000000010000 $
b11000000010000 |
b11000000001100 %
b11000000001100 g
b11000000001100 q
b11000000001100 v
b11000000001100 x
b11010001010110 r
1!
#16000
0!
#17000
0'
b1 6
b1 _
1<
b100 )
b100 j
b1 m
b1 5
b1 ^
17
0J
b0 p
b10000000000000100 *
b10000000000000100 X
b10000000000000100 z
b100 +
b100 Y
b100 i
b100 y
b0 2
b0 Q
1G
0F
b0 1
b0 P
b0 k
b100 Z
1T
b100011 S
b10001100000000010000000000000100 (
b10001100000000010000000000000100 ]
b10001100000000010000000000000100 t
b11000000010100 &
b11000000010100 u
b11000000010100 }
b100 /
b100 A
b100 c
b100 =
b11000000010100 $
b11000000010100 |
b11000000010000 %
b11000000010000 g
b11000000010000 q
b11000000010000 v
b11000000010000 x
b0 -
b0 @
b0 C
b0 n
b0 {
1D
0H
b110100010101100 ,
b110100010101100 B
b110100010101100 e
b110100010101100 o
b110100010101100 r
1!
#18000
0!
#19000
b100 p
b0 5
b0 ^
04
1'
0T
18
1M
b101011 S
b10101100000000010000000000000100 (
b10101100000000010000000000000100 ]
b10101100000000010000000000000100 t
b11000000011000 &
b11000000011000 u
b11000000011000 }
0D
1H
b0 ,
b0 B
b0 e
b0 o
b11000000011000 $
b11000000011000 |
b11000000010100 %
b11000000010100 g
b11000000010100 q
b11000000010100 v
b11000000010100 x
b0 r
1!
#20000
0!
#21000
b1111000011110000000000000000000 p
b101 ;
b101 ?
b101 b
b1111000011110000000000000000000 /
b1111000011110000000000000000000 A
b1111000011110000000000000000000 c
07
b111100001111000 =
b10 m
14
b111100001111000 )
b111100001111000 j
b1 #
b1 >
b1 N
b100111100001111000 *
b100111100001111000 X
b100111100001111000 z
b111100001111000 +
b111100001111000 Y
b111100001111000 i
b111100001111000 y
b1111 2
b1111 Q
b10 0
b10 O
b10 l
b111000 Z
1U
08
0M
b1111 S
b111100000000100111100001111000 (
b111100000000100111100001111000 ]
b111100000000100111100001111000 t
b11000000011100 &
b11000000011100 u
b11000000011100 }
b11000000011100 $
b11000000011100 |
b11000000011000 %
b11000000011000 g
b11000000011000 q
b11000000011000 v
b11000000011000 x
1!
#22000
0!
#23000
b1111000011110000000000000000000 p
b1111000011110000000000000000000 /
b1111000011110000000000000000000 A
b1111000011110000000000000000000 c
b0 =
b0 6
b0 _
0<
b1 ;
b1 ?
b1 b
b1100000100011 )
b1100000100011 j
b11 m
0'
1L
b0 #
b0 >
b0 N
b10000010001100000100011 *
b10000010001100000100011 X
b10000010001100000100011 z
b1100000100011 +
b1100000100011 Y
b1100000100011 i
b1100000100011 y
b11 2
b11 Q
b1 0
b1 O
b1 l
0G
1F
b1111000011110000000000000000000 -
b1111000011110000000000000000000 @
b1111000011110000000000000000000 C
b1111000011110000000000000000000 n
b1111000011110000000000000000000 {
b10 1
b10 P
b10 k
b100011 Z
0U
b0 S
b10000010001100000100011 (
b10000010001100000100011 ]
b10000010001100000100011 t
b11000000100000 &
b11000000100000 u
b11000000100000 }
1D
0H
b0 ,
b0 B
b0 e
b0 o
b11000000100000 $
b11000000100000 |
b11000000011100 %
b11000000011100 g
b11000000011100 q
b11000000011100 v
b11000000011100 x
b1111000011110000000000000000000 r
1!
#24000
0!
#25000
b1001000110100 =
1'
b10010001101000000000000000000 p
b1 6
b1 _
1<
b101 ;
b101 ?
b101 b
b1001000110100 )
b1001000110100 j
b101 m
b10010001101000000000000000000 /
b10010001101000000000000000000 A
b10010001101000000000000000000 c
0L
b1000 #
b1000 >
b1000 N
b1010001001000110100 *
b1010001001000110100 X
b1010001001000110100 z
b1001000110100 +
b1001000110100 Y
b1001000110100 i
b1001000110100 y
b10 2
b10 Q
b101 0
b101 O
b101 l
1G
0F
0D
1H
b0 -
b0 @
b0 C
b0 n
b0 {
b0 1
b0 P
b0 k
b110100 Z
1U
b1111 S
b111100000001010001001000110100 (
b111100000001010001001000110100 ]
b111100000001010001001000110100 t
b11000000100100 &
b11000000100100 u
b11000000100100 }
b11000000100100 $
b11000000100100 |
b11000000100000 %
b11000000100000 g
b11000000100000 q
b11000000100000 v
b11000000100000 x
1!
#26000
0!
#27000
b101 p
b101 /
b101 A
b101 c
b101 =
b10 ;
b10 ?
b10 b
b101 )
b101 j
b100 m
1'
b0 #
b0 >
b0 N
b1000000000000000101 *
b1000000000000000101 X
b1000000000000000101 z
b101 +
b101 Y
b101 i
b101 y
b0 2
b0 Q
b100 0
b100 O
b100 l
b101 Z
1R
0U
b1101 S
b110100000001000000000000000101 (
b110100000001000000000000000101 ]
b110100000001000000000000000101 t
b11000000101000 &
b11000000101000 u
b11000000101000 }
0D
1H
b0 ,
b0 B
b0 e
b0 o
b11000000101000 $
b11000000101000 |
b11000000100100 %
b11000000100100 g
b11000000100100 q
b11000000100100 v
b11000000100100 x
b10010001101000000000000000000 r
1!
#28000
0!
#29000
b0 p
b0 /
b0 A
b0 c
b0 =
b0 ;
b0 ?
b0 b
b0 )
b0 j
b0 m
1'
b0 *
b0 X
b0 z
b0 +
b0 Y
b0 i
b0 y
b0 0
b0 O
b0 l
b0 Z
0R
b0 S
b0 (
b0 ]
b0 t
b11000000101100 &
b11000000101100 u
b11000000101100 }
b11000000101100 $
b11000000101100 |
b11000000101000 %
b11000000101000 g
b11000000101000 q
b11000000101000 v
b11000000101000 x
0D
1H
b0 ,
b0 B
b0 e
b0 o
b101 r
1!
#30000
0!
#31000
b11111111111111111111111111111111 =
0'
b100 p
17
b11111111111111111111111111111111 )
b11111111111111111111111111111111 j
b101 m
04
b100 /
b100 A
b100 c
b11111 #
b11111 >
b11111 N
b100001011111111111111111 *
b100001011111111111111111 X
b100001011111111111111111 z
b1111111111111111 +
b1111111111111111 Y
b1111111111111111 i
b1111111111111111 y
b11111 2
b11111 Q
b10010001101000000000000000000 ,
b10010001101000000000000000000 B
b10010001101000000000000000000 e
b10010001101000000000000000000 o
b101 0
b101 O
b101 l
0G
1F
1D
0H
b101 -
b101 @
b101 C
b101 n
b101 {
b100 1
b100 P
b100 k
b111111 Z
18
1M
b101011 S
b10101100100001011111111111111111 (
b10101100100001011111111111111111 ]
b10101100100001011111111111111111 t
b11000000110000 &
b11000000110000 u
b11000000110000 }
b11000000110000 $
b11000000110000 |
b11000000101100 %
b11000000101100 g
b11000000101100 q
b11000000101100 v
b11000000101100 x
b0 r
1!
#32000
0!
#33000
b10010001101000000000000000000 p
b10010001101000000000000000000 .
b10010001101000000000000000000 f
b11 m
b1 5
b1 ^
14
b100000111111111111111111 *
b100000111111111111111111 X
b100000111111111111111111 z
b1111000011110000000000000000000 ,
b1111000011110000000000000000000 B
b1111000011110000000000000000000 e
b1111000011110000000000000000000 o
b11 0
b11 O
b11 l
1T
08
0M
b100011 S
b10001100100000111111111111111111 (
b10001100100000111111111111111111 ]
b10001100100000111111111111111111 t
b11000000110100 &
b11000000110100 u
b11000000110100 }
b11000000110100 $
b11000000110100 |
b11000000110000 %
b11000000110000 g
b11000000110000 q
b11000000110000 v
b11000000110000 x
1!
#34000
0!
#35000
b0 .
b0 f
b10010001101000000000000000011 p
1'
b11 =
b101 m
b0 5
b0 ^
04
b11 )
b11 j
b10010001101000000000000000011 /
b10010001101000000000000000011 A
b10010001101000000000000000011 c
b11 3
b11 \
b11 w
b0 #
b0 >
b0 N
b11001010000000000000011 *
b11001010000000000000011 X
b11001010000000000000011 z
b11 +
b11 Y
b11 i
b11 y
b0 2
b0 Q
b101 0
b101 O
b101 l
0D
1H
b10010001101000000000000000000 -
b10010001101000000000000000000 @
b10010001101000000000000000000 C
b10010001101000000000000000000 n
b10010001101000000000000000000 {
b11 1
b11 P
b11 k
b11 Z
0T
1[
b100 S
b10000011001010000000000000011 (
b10000011001010000000000000011 ]
b10000011001010000000000000011 t
b11000001000100 &
b11000001000100 u
b11000001000100 }
b10010001101000000000000000000 ,
b10010001101000000000000000000 B
b10010001101000000000000000000 e
b10010001101000000000000000000 o
b11000000111000 $
b11000000111000 |
b11000000110100 %
b11000000110100 g
b11000000110100 q
b11000000110100 v
b11000000110100 x
b10010001101000000000000000000 r
1!
#36000
0!
#37000
b10010001101000000000000000000 .
b10010001101000000000000000000 f
b10010001101000000010000000100 p
b10010001101000000010000000100 /
b10010001101000000010000000100 A
b10010001101000000010000000100 c
0'
b10 ;
b10 ?
b10 b
07
b10000000100 =
b111 m
14
b11000001001000 &
b11000001001000 u
b11000001001000 }
b10000000100 )
b10000000100 j
b0 3
b0 \
b0 w
b10000 #
b10000 >
b10000 N
b11001110000010000000100 *
b11001110000010000000100 X
b11001110000010000000100 z
b10000000100 +
b10000000100 Y
b10000000100 i
b10000000100 y
1D
0H
b0 ,
b0 B
b0 e
b0 o
b111 0
b111 O
b111 l
b100 Z
1R
0[
b1101 S
b110100011001110000010000000100 (
b110100011001110000010000000100 ]
b110100011001110000010000000100 t
b11000001001000 $
b11000001001000 |
b11000001000100 %
b11000001000100 g
b11000001000100 q
b11000001000100 v
b11000001000100 x
1!
#38000
0!
#39000
b0 .
b0 f
b10010001101000000010000010010 p
b10010001101000000010000010010 /
b10010001101000000010000010010 A
b10010001101000000010000010010 c
b1110 =
b0 ;
b0 ?
b0 b
17
b1110 )
b1110 j
b11 m
04
b11 3
b11 \
b11 w
b0 #
b0 >
b0 N
b111000110000000000001110 *
b111000110000000000001110 X
b111000110000000000001110 z
b1110 +
b1110 Y
b1110 i
b1110 y
b11 0
b11 O
b11 l
1D
0H
b10010001101000000010000000100 -
b10010001101000000010000000100 @
b10010001101000000010000000100 C
b10010001101000000010000000100 n
b10010001101000000010000000100 {
b111 1
b111 P
b111 k
b1110 Z
0R
1[
b100 S
b10000111000110000000000001110 (
b10000111000110000000000001110 ]
b10000111000110000000000001110 t
b11000001001100 &
b11000001001100 u
b11000001001100 }
b10010001101000000000000000000 ,
b10010001101000000000000000000 B
b10010001101000000000000000000 e
b10010001101000000000000000000 o
b11000001001100 $
b11000001001100 |
b11000001001000 %
b11000001001000 g
b11000001001000 q
b11000001001000 v
b11000001001000 x
b10010001101000000010000000100 r
1!
#40000
0!
#41000
1'
b0 p
07
b0 =
b0 m
14
b11000001010000 &
b11000001010000 u
b11000001010000 }
b0 )
b0 j
b0 /
b0 A
b0 c
b0 3
b0 \
b0 w
b0 *
b0 X
b0 z
b0 +
b0 Y
b0 i
b0 y
0D
1H
b0 ,
b0 B
b0 e
b0 o
b0 0
b0 O
b0 l
1G
0F
b0 -
b0 @
b0 C
b0 n
b0 {
b0 1
b0 P
b0 k
b0 Z
0[
b0 S
b0 (
b0 ]
b0 t
b11000001010000 $
b11000001010000 |
b11000001001100 %
b11000001001100 g
b11000001001100 q
b11000001001100 v
b11000001001100 x
1!
#42000
0!
#43000
b1110111011101110000000000000000 p
b1110111011101110000000000000000 /
b1110111011101110000000000000000 A
b1110111011101110000000000000000 c
b101 ;
b101 ?
b101 b
b111011101110111 =
b111011101110111 )
b111011101110111 j
b1000 m
b11101 #
b11101 >
b11101 N
b10000111011101110111 *
b10000111011101110111 X
b10000111011101110111 z
b111011101110111 +
b111011101110111 Y
b111011101110111 i
b111011101110111 y
b1110 2
b1110 Q
b1000 0
b1000 O
b1000 l
b110111 Z
1U
b1111 S
b111100000010000111011101110111 (
b111100000010000111011101110111 ]
b111100000010000111011101110111 t
b11000001010100 &
b11000001010100 u
b11000001010100 }
b11000001010100 $
b11000001010100 |
b11000001010000 %
b11000001010000 g
b11000001010000 q
b11000001010000 v
b11000001010000 x
b0 r
1!
#44000
0!
#45000
b1110111011101111111111111111111 p
b1110111011101111111111111111111 /
b1110111011101111111111111111111 A
b1110111011101111111111111111111 c
b1111111111111111 =
b10 ;
b10 ?
b10 b
b1111111111111111 )
b1111111111111111 j
1'
b11111 #
b11111 >
b11111 N
b1000010001111111111111111 *
b1000010001111111111111111 X
b1000010001111111111111111 z
b1111111111111111 +
b1111111111111111 Y
b1111111111111111 i
b1111111111111111 y
b11111 2
b11111 Q
0G
1F
b1110111011101110000000000000000 -
b1110111011101110000000000000000 @
b1110111011101110000000000000000 C
b1110111011101110000000000000000 n
b1110111011101110000000000000000 {
b1000 1
b1000 P
b1000 k
b111111 Z
1R
0U
b1101 S
b110101000010001111111111111111 (
b110101000010001111111111111111 ]
b110101000010001111111111111111 t
b11000001011000 &
b11000001011000 u
b11000001011000 }
b11000001011000 $
b11000001011000 |
b11000001010100 %
b11000001010100 g
b11000001010100 q
b11000001010100 v
b11000001010100 x
0D
1H
b1110111011101110000000000000000 ,
b1110111011101110000000000000000 B
b1110111011101110000000000000000 e
b1110111011101110000000000000000 o
b1110111011101110000000000000000 r
1!
#46000
0!
#47000
b0 m
b1110111011101111111111111111111 =
0'
b10001000100010000000000000000001 p
b0 6
b0 _
0<
b1 ;
b1 ?
b1 b
b100011 )
b100011 j
b10001000100010000000000000000001 /
b10001000100010000000000000000001 A
b10001000100010000000000000000001 c
1L
b0 #
b0 >
b0 N
b10000000000000100011 *
b10000000000000100011 X
b10000000000000100011 z
b100011 +
b100011 Y
b100011 i
b100011 y
b0 2
b0 Q
1G
0F
b0 1
b0 P
b0 k
b100011 Z
0R
b0 S
b10000000000000100011 (
b10000000000000100011 ]
b10000000000000100011 t
b11000001011100 &
b11000001011100 u
b11000001011100 }
b0 -
b0 @
b0 C
b0 n
b0 {
1D
0H
b1110111011101111111111111111111 ,
b1110111011101111111111111111111 B
b1110111011101111111111111111111 e
b1110111011101111111111111111111 o
b11000001011100 $
b11000001011100 |
b11000001011000 %
b11000001011000 g
b11000001011000 q
b11000001011000 v
b11000001011000 x
b1110111011101111111111111111111 r
1!
#48000
0!
#49000
b1000100000000 p
1'
b1 6
b1 _
1<
b10 ;
b10 ?
b10 b
b1000100000000 )
b1000100000000 j
b0 m
b1000100000000 /
b1000100000000 A
b1000100000000 c
b1000100000000 =
0L
b100 #
b100 >
b100 N
b1000100000000 *
b1000100000000 X
b1000100000000 z
b1000100000000 +
b1000100000000 Y
b1000100000000 i
b1000100000000 y
b10 2
b10 Q
0D
1H
b0 ,
b0 B
b0 e
b0 o
b0 0
b0 O
b0 l
b0 Z
1R
b1101 S
b110100000000000001000100000000 (
b110100000000000001000100000000 ]
b110100000000000001000100000000 t
b11000001100000 &
b11000001100000 u
b11000001100000 }
b11000001100000 $
b11000001100000 |
b11000001011100 %
b11000001011100 g
b11000001011100 q
b11000001011100 v
b11000001011100 x
b0 r
1!
#50000
0!
#51000
b10010001101000000000000000000 .
b10010001101000000000000000000 f
b0 =
0'
b10010001101000000010000000100 p
b0 6
b0 _
0<
b101000000100001 )
b101000000100001 j
b1010 m
b0 ;
b0 ?
b0 b
b10010001101000000010000000100 /
b10010001101000000010000000100 A
b10010001101000000010000000100 c
1J
b0 #
b0 >
b0 N
b111001100101000000100001 *
b111001100101000000100001 X
b111001100101000000100001 z
b101000000100001 +
b101000000100001 Y
b101000000100001 i
b101000000100001 y
b1010 2
b1010 Q
b110 0
b110 O
b110 l
0G
1F
1D
0H
b10010001101000000010000000100 -
b10010001101000000010000000100 @
b10010001101000000010000000100 C
b10010001101000000010000000100 n
b10010001101000000010000000100 {
b111 1
b111 P
b111 k
b100001 Z
0R
b0 S
b111001100101000000100001 (
b111001100101000000100001 ]
b111001100101000000100001 t
b11000001100100 &
b11000001100100 u
b11000001100100 }
b11000001100100 $
b11000001100100 |
b11000001100000 %
b11000001100000 g
b11000001100000 q
b11000001100000 v
b11000001100000 x
1!
#52000
0!
#53000
b0 .
b0 f
b0 p
b1 6
b1 _
1<
b0 )
b0 j
b1000 m
b10 ;
b10 ?
b10 b
b0 =
b0 /
b0 A
b0 c
0J
b10000000000000000000 *
b10000000000000000000 X
b10000000000000000000 z
b0 +
b0 Y
b0 i
b0 y
b0 2
b0 Q
b1110111011101111111111111111111 ,
b1110111011101111111111111111111 B
b1110111011101111111111111111111 e
b1110111011101111111111111111111 o
b1000 0
b1000 O
b1000 l
1G
0F
1D
0H
b0 -
b0 @
b0 C
b0 n
b0 {
b0 1
b0 P
b0 k
b0 Z
1R
b1101 S
b110100000010000000000000000000 (
b110100000010000000000000000000 ]
b110100000010000000000000000000 t
b11000001101000 &
b11000001101000 u
b11000001101000 }
b11000001101000 $
b11000001101000 |
b11000001100100 %
b11000001100100 g
b11000001100100 q
b11000001100100 v
b11000001100100 x
b10010001101000000010000000100 r
1!
#54000
0!
#55000
b1 p
b1 /
b1 A
b1 c
b1 =
b1 )
b1 j
b1001 m
1'
b10010000000000000001 *
b10010000000000000001 X
b10010000000000000001 z
b1 +
b1 Y
b1 i
b1 y
b1001 0
b1001 O
b1001 l
b1 Z
b110100000010010000000000000001 (
b110100000010010000000000000001 ]
b110100000010010000000000000001 t
b11000001101100 &
b11000001101100 u
b11000001101100 }
0D
1H
b0 ,
b0 B
b0 e
b0 o
b11000001101100 $
b11000001101100 |
b11000001101000 %
b11000001101000 g
b11000001101000 q
b11000001101000 v
b11000001101000 x
b0 r
1!
#56000
0!
#57000
b1010 m
0'
b10100000000000000001 *
b10100000000000000001 X
b10100000000000000001 z
b1010 0
b1010 O
b1010 l
b110100000010100000000000000001 (
b110100000010100000000000000001 ]
b110100000010100000000000000001 t
b11000001110000 &
b11000001110000 u
b11000001110000 }
b11000001110000 $
b11000001110000 |
b11000001101100 %
b11000001101100 g
b11000001101100 q
b11000001101100 v
b11000001101100 x
1D
0H
b10010001101000000010000000100 ,
b10010001101000000010000000100 B
b10010001101000000010000000100 e
b10010001101000000010000000100 o
b1 r
1!
#58000
0!
#59000
b1 p
b1000 m
b1 /
b1 A
b1 c
b1 =
b0 6
b0 _
0<
b100000000100001 )
b100000000100001 j
b0 ;
b0 ?
b0 b
1J
b1000010100100000000100001 *
b1000010100100000000100001 X
b1000010100100000000100001 z
b100000000100001 +
b100000000100001 Y
b100000000100001 i
b100000000100001 y
b1000 2
b1000 Q
b1000 1
b1000 P
b1000 k
b100001 Z
0R
b0 S
b1000010100100000000100001 (
b1000010100100000000100001 ]
b1000010100100000000100001 t
b11000001110100 &
b11000001110100 u
b11000001110100 }
b1 ,
b1 B
b1 e
b1 o
b11000001110100 $
b11000001110100 |
b11000001110000 %
b11000001110000 g
b11000001110000 q
b11000001110000 v
b11000001110000 x
1!
#60000
0!
#61000
b11111111111111111111111111111110 =
b1 6
b1 _
1<
17
b11111111111111111111111111111110 )
b11111111111111111111111111111110 j
b1001 m
04
0J
b11 3
b11 \
b11 w
1'
b11111111111111111111111111111111 p
b11111 #
b11111 >
b11111 N
b1000010011111111111111110 *
b1000010011111111111111110 X
b1000010011111111111111110 z
b1111111111111110 +
b1111111111111110 Y
b1111111111111110 i
b1111111111111110 y
b11111 2
b11111 Q
b1001 0
b1001 O
b1001 l
b111110 Z
1[
b100 S
b10001000010011111111111111110 (
b10001000010011111111111111110 ]
b10001000010011111111111111110 t
b11000001110000 &
b11000001110000 u
b11000001110000 }
b11111111111111111111111111111111 /
b11111111111111111111111111111111 A
b11111111111111111111111111111111 c
b11000001111000 $
b11000001111000 |
b11000001110100 %
b11000001110100 g
b11000001110100 q
b11000001110100 v
b11000001110100 x
0G
1F
0D
1H
b1 -
b1 @
b1 C
b1 n
b1 {
1!
#62000
0!
#63000
b10 p
b10 /
b10 A
b10 c
b0 6
b0 _
0<
07
b1 =
b1000 m
14
b11000001110100 &
b11000001110100 u
b11000001110100 }
b100000000100001 )
b100000000100001 j
1J
b0 3
b0 \
b0 w
b0 #
b0 >
b0 N
b1000010100100000000100001 *
b1000010100100000000100001 X
b1000010100100000000100001 z
b100000000100001 +
b100000000100001 Y
b100000000100001 i
b100000000100001 y
b1000 2
b1000 Q
b1010 0
b1010 O
b1010 l
b100001 Z
0[
b0 S
b1000010100100000000100001 (
b1000010100100000000100001 ]
b1000010100100000000100001 t
b11000001110100 $
b11000001110100 |
b11000001110000 %
b11000001110000 g
b11000001110000 q
b11000001110000 v
b11000001110000 x
1!
#64000
0!
#65000
b11111111111111111111111111111110 =
b1 6
b1 _
1<
17
b11111111111111111111111111111110 )
b11111111111111111111111111111110 j
b1001 m
04
0J
b11 3
b11 \
b11 w
0'
b0 p
b11111 #
b11111 >
b11111 N
b1000010011111111111111110 *
b1000010011111111111111110 X
b1000010011111111111111110 z
b1111111111111110 +
b1111111111111110 Y
b1111111111111110 i
b1111111111111110 y
b11111 2
b11111 Q
b1001 0
b1001 O
b1001 l
b111110 Z
1[
b100 S
b10001000010011111111111111110 (
b10001000010011111111111111110 ]
b10001000010011111111111111110 t
b11000001111000 &
b11000001111000 u
b11000001111000 }
b0 /
b0 A
b0 c
b11000001111000 $
b11000001111000 |
b11000001110100 %
b11000001110100 g
b11000001110100 q
b11000001110100 v
b11000001110100 x
1D
0H
b10 -
b10 @
b10 C
b10 n
b10 {
b10 r
1!
#66000
0!
#67000
1'
07
b110000100010 =
b11111 m
14
b11000001111100 p
b10 6
b10 _
b11000010001000 &
b11000010001000 u
b11000010001000 }
b110000100010 )
b110000100010 j
b110000100010 /
b110000100010 A
b110000100010 c
b1 3
b1 \
b1 w
b10 5
b10 ^
b10000 #
b10000 >
b10000 N
b110000100010 *
b110000100010 X
b110000100010 z
b110000100010 +
b110000100010 Y
b110000100010 i
b110000100010 y
b1 2
b1 Q
0D
1H
b0 ,
b0 B
b0 e
b0 o
b0 0
b0 O
b0 l
1G
0F
b0 -
b0 @
b0 C
b0 n
b0 {
b0 1
b0 P
b0 k
b100010 Z
0[
1V
b11 S
b1100000000000000110000100010 (
b1100000000000000110000100010 ]
b1100000000000000110000100010 t
b11000001111100 $
b11000001111100 |
b11000001111000 %
b11000001111000 g
b11000001111000 q
b11000001111000 v
b11000001111000 x
1!
#68000
0!
